Discover and Access Single Cell Data Sets in the cellxgene Data Portal • cellxgenedp
…
db <- db()

Printing the db object provides a brief overview of the available data, as well as hints, in the form of functions like collections(), for further exploration.

db
#> cellxgene_db
#> number of collections(): 119
#> number of datasets(): 706
#> number of files(): 2813

The portal organizes data hierarchically, with ‘collections’ (research studies, approximately), ‘datasets’, and ‘files’. Discover data using the corresponding functions.

collections(db)
#> # A tibble: 119 × 15
#>    collec…¹ acces…² conso…³ conta…⁴ conta…⁵ curat…⁶ data_…⁷ descr…⁸ links  name 
#>    <chr>    <chr>   <lgl>   <chr>   <chr>   <chr>   <chr>   <chr>   <list> <chr>
#>  1 43d4bb3… READ    NA      raymon… Raymon… Batuha… 1.0     Pertur… <list> Tran…
#>  2 0434a9d… READ    NA      avilla… Alexan… Batuha… 1.0     The va… <list> Acut…
#>  3 03cdc7f… READ    NA      tien.p… Tien P… Jason … 1.0     scRNA-… <lgl>  Emph…
#>  4 2902f08… READ    NA      lopes@… S. M. … Wei Kh… 1.0     The ov… <list> Sing…
#>  5 83ed3be… READ    NA      tom.ta… Tom Ta… Jennif… 1.0     During… <list> Inte…
#>  6 eb735cc… READ    NA      rv4@sa… Roser … Batuha… 1.0     Human … <list> Samp…
#>  7 44531dd… READ    NA      tallul… Tallul… Jennif… 1.0     The cr… <list> Sing…
#>  8 e75342a… READ    NA      nhuebn… Norber… Jennif… 1.0     Pathog… <list> Path…
#>  9 64b24fd… READ    NA      magnes… Scott … Rachel… 1.0     Single… <list> A pr…
#> 10 125eef5… READ    NA      my4@sa… Matthe… Jason … 1.0     Unders… <list> Sing…
#> # … with 109 more rows, 5 more variables: publisher_metadata <list>,
#> #   visibility <chr>, created_at <date>, published_at <date>,
#> #   updated_at <date>, and abbreviated variable names ¹​collection_id,
#> #   ²​access_type, ³​consortia, ⁴​contact_email, ⁵​contact_name, ⁶​curator_name,
#> #   ⁷​data_submission_policy_version, ⁸​description

datasets(db)
#> # A tibble: 706 × 26
#>    dataset_id     colle…¹ donor…² assay  cell_…³ cell_…⁴ datas…⁵ devel…⁶ disease
#>    <chr>          <chr>   <list>  <list>   <int> <list>  <chr>   <list>  <list> 
#>  1 d62144d1-6e98… 43d4bb… <list>  <list>   68036 <list>  https:… <list>  <list> 
#>  2 07f8f239-2136… 0434a9… <list>  <list>   59506 <list>  https:… <list>  <list> 
#>  3 9aca7e29-d19c… 03cdc7… <list>  <list>   35699 <list>  https:… <list>  <list> 
#>  4 731aeab6-e1d6… 03cdc7… <list>  <list>    3662 <list>  https:… <list>  <list> 
#>  5 bfdafcbc-d785… 03cdc7… <list>  <list>   18386 <list>  https:… <list>  <list> 
#>  6 218af677-b80b… 2902f0… <list>  <list>   20676 <list>  https:… <list>  <list> 
#>  7 9e11bf54-0ea6… 83ed3b… <list>  <list>   71732 <list>  https:… <list>  <list> 
#>  8 a0b9d32b-4085… eb735c… <list>  <list>   97499 <list>  https:… <list>  <list> 
#>  9 5daeaafe-c79e… 44531d… <list>  <list>     146 <list>  https:… <list>  <list> 
#> 10 cc607851-8820… 44531d… <list>  <list>    2346 <list>  https:… <list>  <list> 
#> # … with 696 more rows, 17 more variables: is_primary_data <chr>,
#> #   is_valid <lgl>, mean_genes_per_cell <dbl>, name <chr>, organism <list>,
#> #   processing_status <list>, published <lgl>, revision <int>,
#> #   schema_version <chr>, self_reported_ethnicity <list>, sex <list>,
#> #   suspension_type <list>, tissue <list>, tombstone <lgl>, created_at <date>,
#> #   published_at <date>, updated_at <date>, and abbreviated variable names
#> #   ¹​collection_id, ²​donor_id, ³​cell_count, ⁴​cell_type, ⁵​dataset_deployments, …

files(db)
#> # A tibble: 2,813 × 8
#>    file_id          datas…¹ filen…² filet…³ s3_uri user_…⁴ created_at updated_at
#>    <chr>            <chr>   <chr>   <chr>   <chr>  <lgl>   <date>     <date>    
#>  1 87ce2086-f2eb-4… d62144… "raw.h… RAW_H5… s3://… TRUE    1970-01-01 1970-01-01
#>  2 8eabe485-be71-4… d62144… "local… H5AD    s3://… TRUE    1970-01-01 1970-01-01
#>  3 33dfa406-132a-4… d62144… "local… RDS     s3://… TRUE    1970-01-01 1970-01-01
#>  4 454e0b3c-e207-4… d62144… ""      CXG     s3://… TRUE    1970-01-01 1970-01-01
#>  5 62deea2a-d722-4… 07f8f2… "raw.h… RAW_H5… s3://… TRUE    1970-01-01 1970-01-01
#>  6 b50c48f1-ef5e-4… 07f8f2… "local… H5AD    s3://… TRUE    1970-01-01 1970-01-01
#>  7 59309f21-0db8-4… 07f8f2… "local… RDS     s3://… TRUE    1970-01-01 1970-01-01
#>  8 399c2655-f56a-4… 07f8f2… ""      CXG     s3://… TRUE    1970-01-01 1970-01-01
#>  9 1ca25a06-7251-4… 9aca7e… "raw.h… RAW_H5… s3://… TRUE    1970-01-01 1970-01-01
#> 10 a2dd5b48-98df-4… 9aca7e… "local… H5AD    s3://… TRUE    1970-01-01 1970-01-01
#> # … with 2,803 more rows, and abbreviated variable names ¹​dataset_id,
#> #   ²​filename, ³​filetype, ⁴​user_submitted
…
We can take a similar strategy to identify all datasets belonging to this collection

left_join(
    collection_with_most_datasets |> select(collection_id),
    datasets(db),
    by = "collection_id"
)
#> Warning in left_join(select(collection_with_most_datasets, collection_id), : Each row in `x` is expected to match at most 1 row in `y`.
#> ℹ Row 1 of `x` matches multiple rows.
#> ℹ If multiple matches are expected, set `multiple = "all"` to silence this
#>   warning.
#> # A tibble: 138 × 26
#>    collection_id  datas…¹ donor…² assay  cell_…³ cell_…⁴ datas…⁵ devel…⁶ disease
#>    <chr>          <chr>   <list>  <list>   <int> <list>  <chr>   <list>  <list> 
#>  1 283d65eb-dd53… 4fb0cd… <list>  <list>   25071 <list>  https:… <list>  <list> 
#>  2 283d65eb-dd53… d15266… <list>  <list>   35290 <list>  https:… <list>  <list> 
#>  3 283d65eb-dd53… f4c89e… <list>  <list>   38331 <list>  https:… <list>  <list> 
#>  4 283d65eb-dd53… fb3dee… <list>  <list>   21534 <list>  https:… <list>  <list> 
#>  5 283d65eb-dd53… 7e0f26… <list>  <list>    9932 <list>  https:… <list>  <list> 
#>  6 283d65eb-dd53… 0834c8… <list>  <list>   28724 <list>  https:… <list>  <list> 
#>  7 283d65eb-dd53… 4cce2e… <list>  <list>   35359 <list>  https:… <list>  <list> 
#>  8 283d65eb-dd53… 05dd9b… <list>  <list>   27210 <list>  https:… <list>  <list> 
#>  9 283d65eb-dd53… 5b994d… <list>  <list>   26172 <list>  https:… <list>  <list> 
#> 10 283d65eb-dd53… dab53e… <list>  <list>   34933 <list>  https:… <list>  <list> 
#> # … with 128 more rows, 17 more variables: is_primary_data <chr>,
#> #   is_valid <lgl>, mean_genes_per_cell <dbl>, name <chr>, organism <list>,
#> #   processing_status <list>, published <lgl>, revision <int>,
#> #   schema_version <chr>, self_reported_ethnicity <list>, sex <list>,
#> #   suspension_type <list>, tissue <list>, tombstone <lgl>, created_at <date>,
#> #   published_at <date>, updated_at <date>, and abbreviated variable names
#> #   ¹​dataset_id, ²​donor_id, ³​cell_count, ⁴​cell_type, ⁵​dataset_deployments, …

facets() provides information on ‘levels’ present in specific columns

Notice that some columns are ‘lists’ rather than atomic vectors like ‘character’ or ‘integer’.

datasets(db) |>
    select(where(is.list))
#> # A tibble: 706 × 11
#>    donor_id   assay  cell_…¹ devel…² disease organ…³ processing…⁴ self_…⁵ sex   
#>    <list>     <list> <list>  <list>  <list>  <list>  <list>       <list>  <list>
#>  1 <list [9]> <list> <list>  <list>  <list>  <list>  <named list> <list>  <list>
#>  2 <list>     <list> <list>  <list>  <list>  <list>  <named list> <list>  <list>
#>  3 <list [6]> <list> <list>  <list>  <list>  <list>  <named list> <list>  <list>
#>  4 <list [6]> <list> <list>  <list>  <list>  <list>  <named list> <list>  <list>
#>  5 <list [6]> <list> <list>  <list>  <list>  <list>  <named list> <list>  <list>
#>  6 <list [5]> <list> <list>  <list>  <list>  <list>  <named list> <list>  <list>
#>  7 <list [5]> <list> <list>  <list>  <list>  <list>  <named list> <list>  <list>
#>  8 <list>     <list> <list>  <list>  <list>  <list>  <named list> <list>  <list>
#>  9 <list [4]> <list> <list>  <list>  <list>  <list>  <named list> <list>  <list>
#> 10 <list [4]> <list> <list>  <list>  <list>  <list>  <named list> <list>  <list>
#> # … with 696 more rows, 2 more variables: suspension_type <list>,
#> #   tissue <list>, and abbreviated variable names ¹​cell_type,
#> #   ²​development_stage, ³​organism, ⁴​processing_status, ⁵​self_reported_ethnicity

This indicates that at least some of the datasets had more than one type of assay, cell_type, etc. The facets() function provides a convenient way of discovering possible levels of each column, e.g., assay, organism, self_reported_ethnicity, or sex, and the number of datasets with each label.

facets(db, "assay")
#> # A tibble: 32 × 4
#>    facet label                          ontology_term_id     n
#>    <chr> <chr>                          <chr>            <int>
#>  1 assay 10x 3' v3                      EFO:0009922        346
#>  2 assay 10x 3' v2                      EFO:0009899        170
#>  3 assay Slide-seqV2                    EFO:0030062        129
#>  4 assay 10x 5' v1                      EFO:0011025         48
#>  5 assay Smart-seq2                     EFO:0008931         38
#>  6 assay Visium Spatial Gene Expression EFO:0010961         35
#>  7 assay 10x multiome                   EFO:0030059         24
#>  8 assay Drop-seq                       EFO:0008722         12
#>  9 assay 10x 3' transcription profiling EFO:0030003          9
#> 10 assay 10x 5' v2                      EFO:0009900          9
#> # … with 22 more rows
…
Collections may have links to additional external data, in this case a DOI and two links to RAW_DATA.

external_links <- links(db)
external_links
#> # A tibble: 586 × 4
#>    collection_id                        link_name                link_…¹ link_…²
#>    <chr>                                <chr>                    <chr>   <chr>  
#>  1 43d4bb39-21af-4d05-b973-4c1fed7b916c <NA>                     OTHER   http:/…
#>  2 43d4bb39-21af-4d05-b973-4c1fed7b916c <NA>                     DOI     https:…
#>  3 43d4bb39-21af-4d05-b973-4c1fed7b916c EGAS00001002927          DATA_S… https:…
#>  4 0434a9d4-85fd-4554-b8e3-cf6c582bb2fa Purification of PBMCs    PROTOC… https:…
#>  5 0434a9d4-85fd-4554-b8e3-cf6c582bb2fa <NA>                     DOI     https:…
#>  6 0434a9d4-85fd-4554-b8e3-cf6c582bb2fa MGH COVID-19 Effort Blo… PROTOC… http:/…
#>  7 0434a9d4-85fd-4554-b8e3-cf6c582bb2fa COVID Blood Processing … PROTOC… http:/…
#>  8 0434a9d4-85fd-4554-b8e3-cf6c582bb2fa CITE-seq for PBMCs       PROTOC… https:…
#>  9 0434a9d4-85fd-4554-b8e3-cf6c582bb2fa COVID Airway Processing… PROTOC… http:/…
#> 10 0434a9d4-85fd-4554-b8e3-cf6c582bb2fa <NA>                     OTHER   https:…
#> # … with 576 more rows, and abbreviated variable names ¹​link_type, ²​link_url
…
Discover files associated with our first selected dataset

selected_files <-
    left_join(
        african_american_female |> select(dataset_id),
        files(db),
        by = "dataset_id"
    )
#> Warning in left_join(select(african_american_female, dataset_id), files(db), : Each row in `x` is expected to match at most 1 row in `y`.
#> ℹ Row 1 of `x` matches multiple rows.
#> ℹ If multiple matches are expected, set `multiple = "all"` to silence this
#>   warning.
selected_files
#> # A tibble: 88 × 8
#>    dataset_id       file_id filen…¹ filet…² s3_uri user_…³ created_at updated_at
#>    <chr>            <chr>   <chr>   <chr>   <chr>  <lgl>   <date>     <date>    
#>  1 24205601-0780-4… e1c842… "raw.h… RAW_H5… s3://… TRUE    1970-01-01 1970-01-01
#>  2 24205601-0780-4… 15e9d9… "local… H5AD    s3://… TRUE    1970-01-01 1970-01-01
#>  3 24205601-0780-4… 0d3974… ""      CXG     s3://… TRUE    1970-01-01 1970-01-01
#>  4 24205601-0780-4… e254f9… "local… RDS     s3://… TRUE    1970-01-01 1970-01-01
#>  5 d084f1e1-42f1-4… 59bd46… "local… RDS     s3://… TRUE    1970-01-01 1970-01-01
#>  6 d084f1e1-42f1-4… 3a2467… ""      CXG     s3://… TRUE    1970-01-01 1970-01-01
#>  7 d084f1e1-42f1-4… d9f9d0… "local… H5AD    s3://… TRUE    1970-01-01 1970-01-01
#>  8 d084f1e1-42f1-4… bee803… "raw.h… RAW_H5… s3://… TRUE    1970-01-01 1970-01-01
#>  9 3f40e6b1-e280-4… e47e72… "raw.h… RAW_H5… s3://… TRUE    1970-01-01 1970-01-01
#> 10 3f40e6b1-e280-4… d72756… "local… H5AD    s3://… TRUE    1970-01-01 1970-01-01
#> # … with 78 more rows, and abbreviated variable names ¹​filename, ²​filetype,
#> #   ³​user_submitted
…
