Query cellxgene collections, datasets, and files — collections • cellxgenedp
…
authors() returns a tibble of authors associated with
each collection.

publisher_metadata() returns a tibble of publisher
metadata (journal, publicate date, doi) associated with each
collection.

    Examples

db <- db()

collections(db)
#> # A tibble: 145 × 15
#>    collection_id   access_type consortia contact_email contact_name curator_name
#>    <chr>           <chr>       <list>    <chr>         <chr>        <chr>       
#>  1 2b02dff7-e427-… READ        <lgl [1]> miriam.merad… Miriam Merad Batuhan Cak…
#>  2 03cdc7f4-bd08-… READ        <lgl [1]> tien.peng@uc… Tien Peng    Jason Hilton
#>  3 a72afd53-ab92-… READ        <lgl [1]> cblish@stanf… Catherine A… Jennifer Yu…
#>  4 e9eec7f5-8519-… READ        <list>    mrc38@cam.ac… Menna R Cla… Batuhan Cak…
#>  5 4796c91c-9d8f-… READ        <lgl [1]> vazquezi@msk… Ignacio Váz… Jason Hilton
#>  6 bcb61471-2a44-… READ        <list>    info@kpmp.org KPMP         Jennifer Yu…
#>  7 13d1c580-4b17-… READ        <list>    my4@sanger.a… Matthew You… Jason Hilton
#>  8 5e469121-c203-… READ        <list>    biren@ucsd.e… Bing Ren     Jennifer Yu…
#>  9 9132fae8-bdfe-… READ        <lgl [1]> zhuang@chemi… Xiaowei Zhu… Jennifer Yu…
#> 10 0a77d4c0-d5d0-… READ        <list>    fabian.theis… Fabian Theis Jennifer Yu…
#> # ℹ 135 more rows
#> # ℹ 9 more variables: data_submission_policy_version <chr>, description <chr>,
#> #   links <list>, name <chr>, publisher_metadata <list>, visibility <chr>,
#> #   created_at <date>, published_at <date>, updated_at <date>
…
## authors per collection
authors() |>
    dplyr::count(collection_id, sort = TRUE)
#> # A tibble: 138 × 2
#>    collection_id                            n
#>    <chr>                                <int>
#>  1 e5f58829-1a66-40b5-a624-9046778e74f5   221
#>  2 8f126edf-5405-4731-8374-b5ce11f53e82   205
#>  3 4f586cb6-972b-4ef7-a4ef-3c3800a3c004   147
#>  4 0b9d8a04-bb9d-44da-aa27-705bb65b54eb   135
#>  5 367d95c0-0eb0-4dae-8276-9407239421ee   106
#>  6 6f6d381a-7701-4781-935c-db10d30de293    98
#>  7 1ca90a2d-2943-483d-b678-b809bf464c30    94
#>  8 0a839c4b-10d0-4d64-9272-684c49a2c8ba    90
#>  9 ae1420fe-6630-46ed-8b3d-cc6056a66467    83
#> 10 ddfad306-714d-4cc0-9985-d9072820c530    69
#> # ℹ 128 more rows
…
