Discovery and retrieval • cellxgenedp
…
db

## cellxgene_db
## number of collections(): 183
## number of datasets(): 1179
## number of files(): 2338

The portal organizes data hierarchically, with ‘collections’
(research studies, approximately), ‘datasets’, and ‘files’. Discover
data using the corresponding functions.

collections(db)

## # A tibble: 183 × 18
##    collection_id    collection_version_id collection_url consortia contact_email
##    <chr>            <chr>                 <chr>          <list>    <chr>        
##  1 ceb895f4-ff9f-4… ee098b5a-4f33-473b-b… https://cellx… <list>    panagiotis.r…
##  2 af893e86-8e9f-4… 768170a6-c590-4900-a… https://cellx… <list>    ruichen@bcm.…
##  3 1d1c7275-476a-4… 609becde-c797-41bb-8… https://cellx… <list>    wey334@g.har…
##  4 1b014f39-f202-4… 1d88cb46-6e84-4b5b-b… https://cellx… <lgl [1]> kimberly.ald…
##  5 48d354f5-a5ca-4… 2862daa3-c933-43c8-9… https://cellx… <list>    Nathan.Salom…
##  6 43d4bb39-21af-4… 78360f02-1acc-415c-a… https://cellx… <lgl [1]> raymond.cho@…
##  7 f7cecffa-00b4-4… 43224f82-db2a-443c-9… https://cellx… <list>    st9@sanger.a…
##  8 f17b9205-f61f-4… 21ff4724-95e2-491b-8… https://cellx… <list>    genevieve.ko…
##  9 64b24fda-6591-4… e414854b-2666-4977-9… https://cellx… <lgl [1]> magness@med.…
## 10 48259aa8-f168-4… 44601b80-bd11-49d8-a… https://cellx… <lgl [1]> wtk22@cam.ac…
## # ℹ 173 more rows
## # ℹ 13 more variables: contact_name <chr>, curator_name <chr>,
## #   description <chr>, doi <chr>, links <list>, name <chr>,
## #   publisher_metadata <list>, revising_in <lgl>, revision_of <lgl>,
## #   visibility <chr>, created_at <date>, published_at <date>, revised_at <date>

datasets(db)

## # A tibble: 1,179 × 31
##    dataset_id   dataset_version_id collection_id donor_id assay  batch_condition
##    <chr>        <chr>              <chr>         <list>   <list> <list>         
##  1 53ce2631-36… 2f17c183-388a-4c0… ceb895f4-ff9… <list>   <list> <list [2]>     
##  2 1d4128f6-c2… 94762ee1-9f9f-49e… ceb895f4-ff9… <list>   <list> <list [2]>     
##  3 ed419b4e-db… 758b30a8-5fb0-46c… af893e86-8e9… <list>   <list> <lgl [1]>      
##  4 aad97cb5-f3… d6966985-89f9-485… af893e86-8e9… <list>   <list> <lgl [1]>      
##  5 8f10185b-e0… 63d7a3a3-9691-41d… af893e86-8e9… <list>   <list> <lgl [1]>      
##  6 359f7af4-87… 0f461193-282f-443… af893e86-8e9… <list>   <list> <lgl [1]>      
##  7 11ef37ee-21… 74253a67-927c-4cd… af893e86-8e9… <list>   <list> <lgl [1]>      
##  8 0129dbd9-a7… a970179d-2e9e-4d2… af893e86-8e9… <list>   <list> <lgl [1]>      
##  9 00e5dedd-b9… 94c0e74c-b269-4ce… af893e86-8e9… <list>   <list> <lgl [1]>      
## 10 d319af7f-be… 3c80a5bb-8c89-433… 1d1c7275-476… <list>   <list> <lgl [1]>      
## # ℹ 1,169 more rows
## # ℹ 25 more variables: cell_count <int>, cell_type <list>, citation <chr>,
## #   development_stage <list>, disease <list>, embeddings <list>,
## #   explorer_url <chr>, feature_biotype <list>, feature_count <int>,
## #   feature_reference <list>, is_primary_data <list>,
## #   mean_genes_per_cell <dbl>, organism <list>, primary_cell_count <int>,
## #   raw_data_location <chr>, schema_version <chr>, …

files(db)

## # A tibble: 2,338 × 4
##    dataset_id                             filesize filetype url                 
##    <chr>                                     <dbl> <chr>    <chr>               
##  1 53ce2631-3646-4172-bbd9-38b0a44d8214  406108808 H5AD     https://datasets.ce…
##  2 53ce2631-3646-4172-bbd9-38b0a44d8214  399752425 RDS      https://datasets.ce…
##  3 1d4128f6-c27b-40c4-af77-b1c7e2b694e7  906795740 H5AD     https://datasets.ce…
##  4 1d4128f6-c27b-40c4-af77-b1c7e2b694e7 1060800682 RDS      https://datasets.ce…
##  5 ed419b4e-db9b-40f1-8593-68fdf8dfb076 1071401902 H5AD     https://datasets.ce…
##  6 ed419b4e-db9b-40f1-8593-68fdf8dfb076 1419579253 RDS      https://datasets.ce…
##  7 aad97cb5-f375-45ef-ae9d-178e7f5d5180  785137201 H5AD     https://datasets.ce…
##  8 aad97cb5-f375-45ef-ae9d-178e7f5d5180 1025253758 RDS      https://datasets.ce…
##  9 8f10185b-e0b3-46a5-8706-7f1799225d79 3077438912 H5AD     https://datasets.ce…
## 10 8f10185b-e0b3-46a5-8706-7f1799225d79 4090930879 RDS      https://datasets.ce…
## # ℹ 2,328 more rows
…
We can take a similar strategy to identify all datasets belonging to
this collection

left_join(
    collection_with_most_datasets |> select(collection_id),
    datasets(db),
    by = "collection_id"
)

## # A tibble: 138 × 31
##    collection_id   dataset_id dataset_version_id donor_id assay  batch_condition
##    <chr>           <chr>      <chr>              <list>   <list> <list>         
##  1 283d65eb-dd53-… ff7d15fa-… 51e05270-1f00-452… <list>   <list> <list [1]>     
##  2 283d65eb-dd53-… fe1a73ab-… 4e124ecc-7885-465… <list>   <list> <list [1]>     
##  3 283d65eb-dd53-… fbf173f9-… 5a52f557-aeaf-4fc… <list>   <list> <list [1]>     
##  4 283d65eb-dd53-… fa554686-… 6606e9aa-e4c4-452… <list>   <list> <list [1]>     
##  5 283d65eb-dd53-… f9034091-… 8f5b1977-8317-447… <list>   <list> <list [1]>     
##  6 283d65eb-dd53-… f8dda921-… 1ad58833-956c-454… <list>   <list> <list [1]>     
##  7 283d65eb-dd53-… f7d003d4-… 4d002ac1-4671-490… <list>   <list> <list [1]>     
##  8 283d65eb-dd53-… f6d9f2ad-… 2102f4b8-c1fe-4ee… <list>   <list> <list [1]>     
##  9 283d65eb-dd53-… f5a04dff-… b92375fd-dafe-44c… <list>   <list> <list [1]>     
## 10 283d65eb-dd53-… f502c312-… b750310e-1abb-4c7… <list>   <list> <list [1]>     
## # ℹ 128 more rows
## # ℹ 25 more variables: cell_count <int>, cell_type <list>, citation <chr>,
## #   development_stage <list>, disease <list>, embeddings <list>,
## #   explorer_url <chr>, feature_biotype <list>, feature_count <int>,
## #   feature_reference <list>, is_primary_data <list>,
## #   mean_genes_per_cell <dbl>, organism <list>, primary_cell_count <int>,
## #   raw_data_location <chr>, schema_version <chr>, …

facets() provides information on ‘levels’ present in
specific columns

Notice that some columns are ‘lists’ rather than atomic vectors like
‘character’ or ‘integer’.

datasets(db) |>
    select(where(is.list))

## # A tibble: 1,179 × 15
##    donor_id    assay      batch_condition cell_type   development_stage disease
##    <list>      <list>     <list>          <list>      <list>            <list> 
##  1 <list [12]> <list [1]> <list [2]>      <list [13]> <list [10]>       <list> 
##  2 <list [12]> <list [1]> <list [2]>      <list [13]> <list [10]>       <list> 
##  3 <list [6]>  <list [1]> <lgl [1]>       <list [4]>  <list [5]>        <list> 
##  4 <list [6]>  <list [1]> <lgl [1]>       <list [1]>  <list [5]>        <list> 
##  5 <list [6]>  <list [1]> <lgl [1]>       <list [2]>  <list [5]>        <list> 
##  6 <list [6]>  <list [1]> <lgl [1]>       <list [1]>  <list [5]>        <list> 
##  7 <list [6]>  <list [1]> <lgl [1]>       <list [1]>  <list [5]>        <list> 
##  8 <list [6]>  <list [1]> <lgl [1]>       <list [6]>  <list [5]>        <list> 
##  9 <list [6]>  <list [1]> <lgl [1]>       <list [2]>  <list [5]>        <list> 
## 10 <list [7]>  <list [2]> <lgl [1]>       <list [1]>  <list [7]>        <list> 
## # ℹ 1,169 more rows
## # ℹ 9 more variables: embeddings <list>, feature_biotype <list>,
## #   feature_reference <list>, is_primary_data <list>, organism <list>,
## #   self_reported_ethnicity <list>, sex <list>, suspension_type <list>,
## #   tissue <list>

This indicates that at least some of the datasets had more than one
type of assay, cell_type, etc. The
facets() function provides a convenient way of discovering
possible levels of each column, e.g., assay,
organism, self_reported_ethnicity, or
sex, and the number of datasets with each label.

facets(db, "assay")

## # A tibble: 38 × 4
##    facet label                          ontology_term_id     n
##    <chr> <chr>                          <chr>            <int>
##  1 assay 10x 3' v3                      EFO:0009922        575
##  2 assay 10x 3' v2                      EFO:0009899        254
##  3 assay Slide-seqV2                    EFO:0030062        223
##  4 assay Visium Spatial Gene Expression EFO:0010961        108
##  5 assay 10x 5' v1                      EFO:0011025         81
##  6 assay Smart-seq2                     EFO:0008931         63
##  7 assay 10x multiome                   EFO:0030059         61
##  8 assay 10x 5' v2                      EFO:0009900         23
##  9 assay Drop-seq                       EFO:0008722         18
## 10 assay sci-RNA-seq3                   EFO:0030028         15
## # ℹ 28 more rows

facets(db, "self_reported_ethnicity")

## # A tibble: 32 × 4
##    facet                   label                          ontology_term_id     n
##    <chr>                   <chr>                          <chr>            <int>
##  1 self_reported_ethnicity European                       HANCESTRO:0005     505
##  2 self_reported_ethnicity unknown                        unknown            411
##  3 self_reported_ethnicity na                             na                 320
##  4 self_reported_ethnicity Asian                          HANCESTRO:0008     141
##  5 self_reported_ethnicity African American               HANCESTRO:0568      61
##  6 self_reported_ethnicity Hispanic or Latin American     HANCESTRO:0014      54
##  7 self_reported_ethnicity Native American,Hispanic or L… HANCESTRO:0013,…    50
##  8 self_reported_ethnicity African American or Afro-Cari… HANCESTRO:0016      32
##  9 self_reported_ethnicity Greater Middle Eastern  (Midd… HANCESTRO:0015      22
## 10 self_reported_ethnicity South Asian                    HANCESTRO:0006      11
## # ℹ 22 more rows
…
Collections may have links to additional external data, in this case
a DOI and two links to RAW_DATA.

external_links <- links(db)
external_links

## # A tibble: 725 × 4
##    collection_id                        link_name     link_type   link_url      
##    <chr>                                <chr>         <chr>       <chr>         
##  1 ceb895f4-ff9f-403a-b7c3-187a9657ac2c SCP1859       OTHER       https://singl…
##  2 ceb895f4-ff9f-403a-b7c3-187a9657ac2c NA            LAB_WEBSITE https://labs.…
##  3 ceb895f4-ff9f-403a-b7c3-187a9657ac2c NA            OTHER       http://genome…
##  4 ceb895f4-ff9f-403a-b7c3-187a9657ac2c GSE204684     RAW_DATA    https://www.n…
##  5 ceb895f4-ff9f-403a-b7c3-187a9657ac2c analysis code OTHER       https://zenod…
##  6 af893e86-8e9f-41f1-a474-ef05359b1fb7 NA            OTHER       https://retin…
##  7 af893e86-8e9f-41f1-a474-ef05359b1fb7 NA            RAW_DATA    https://data.…
##  8 af893e86-8e9f-41f1-a474-ef05359b1fb7 GSE226108     RAW_DATA    https://www.n…
##  9 1d1c7275-476a-49e2-9022-ad1b1c793594 GSE148077     RAW_DATA    https://www.n…
## 10 1d1c7275-476a-49e2-9022-ad1b1c793594 NA            OTHER       https://singl…
## # ℹ 715 more rows
…
