Case studies • cellxgenedp
…
A cellxgenedp
solution uses authors() to discover authors and their
collections, and joins this information to datasets().

author_datasets <- left_join(
    authors(),
    datasets(),
    by = "collection_id",
    relationship = "many-to-many"
)
author_datasets
#> # A tibble: 43,244 × 34
#>    collection_id  family given consortium dataset_id dataset_version_id donor_id
#>    <chr>          <chr>  <chr> <chr>      <chr>      <chr>              <list>  
#>  1 ceb895f4-ff9f… Zhu    Kaiyi NA         53ce2631-… 2f17c183-388a-4c0… <list>  
#>  2 ceb895f4-ff9f… Zhu    Kaiyi NA         1d4128f6-… 94762ee1-9f9f-49e… <list>  
#>  3 ceb895f4-ff9f… Bendl  Jaro… NA         53ce2631-… 2f17c183-388a-4c0… <list>  
#>  4 ceb895f4-ff9f… Bendl  Jaro… NA         1d4128f6-… 94762ee1-9f9f-49e… <list>  
#>  5 ceb895f4-ff9f… Rahman Samir NA         53ce2631-… 2f17c183-388a-4c0… <list>  
#>  6 ceb895f4-ff9f… Rahman Samir NA         1d4128f6-… 94762ee1-9f9f-49e… <list>  
#>  7 ceb895f4-ff9f… Vicari Jame… NA         53ce2631-… 2f17c183-388a-4c0… <list>  
#>  8 ceb895f4-ff9f… Vicari Jame… NA         1d4128f6-… 94762ee1-9f9f-49e… <list>  
#>  9 ceb895f4-ff9f… Colem… Clai… NA         53ce2631-… 2f17c183-388a-4c0… <list>  
#> 10 ceb895f4-ff9f… Colem… Clai… NA         1d4128f6-… 94762ee1-9f9f-49e… <list>  
#> # ℹ 43,234 more rows
#> # ℹ 27 more variables: assay <list>, batch_condition <list>, cell_count <int>,
#> #   cell_type <list>, citation <chr>, development_stage <list>, disease <list>,
#> #   embeddings <list>, explorer_url <chr>, feature_biotype <list>,
#> #   feature_count <int>, feature_reference <list>, is_primary_data <list>,
#> #   mean_genes_per_cell <dbl>, organism <list>, primary_cell_count <int>,
#> #   raw_data_location <chr>, schema_version <chr>, …

author_datasets provides a convenient point from which
to make basic queries, e.g., finding the authors contributing the most
datasets.

author_datasets |>
    count(family, given, sort = TRUE)
#> # A tibble: 3,988 × 3
#>    family      given        n
#>    <chr>       <chr>    <int>
#>  1 Casper      Tamara     232
#>  2 Dee         Nick       232
#>  3 Macosko     Evan Z.    230
#>  4 Chen        Fei        226
#>  5 Ding        Song-Lin   226
#>  6 Murray      Evan       226
#>  7 Hirschstein Daniel     217
#>  8 Travaglini  Kyle J.    202
#>  9 Nyhus       Julie      201
#> 10 Lein        Ed S.      198
#> # ℹ 3,978 more rows
…
The datasets associated with authors are

right_join(
    author_datasets,
    prolific_authors,
    by = c("family", "given")
)
#> # A tibble: 376 × 35
#>    collection_id  family given consortium dataset_id dataset_version_id donor_id
#>    <chr>          <chr>  <chr> <chr>      <chr>      <chr>              <list>  
#>  1 1d1c7275-476a… Regev  Aviv  NA         d319af7f-… 3c80a5bb-8c89-433… <list>  
#>  2 1d1c7275-476a… Regev  Aviv  NA         bc7260e0-… cab44f51-3ebf-4c9… <list>  
#>  3 1d1c7275-476a… Regev  Aviv  NA         8623d55f-… f7e3732a-eea9-49a… <list>  
#>  4 1d1c7275-476a… Regev  Aviv  NA         7b75b2c4-… 4b53f264-a62e-41a… <list>  
#>  5 1d1c7275-476a… Regev  Aviv  NA         5cdbb2ea-… 9944528e-f23b-4d8… <list>  
#>  6 1d1c7275-476a… Regev  Aviv  NA         2f6a20f1-… 129c17aa-3d9d-435… <list>  
#>  7 f7cecffa-00b4… Meyer  Kers… NA         eaf0c852-… ec370e4c-4ce8-435… <list>  
#>  8 f7cecffa-00b4… Meyer  Kers… NA         5af90777-… 4fd0f389-89ac-4a6… <list>  
#>  9 f7cecffa-00b4… Meyer  Kers… NA         318cb2a6-… 99d31e0c-4ccf-42c… <list>  
#> 10 f7cecffa-00b4… Teich… Sara… NA         eaf0c852-… ec370e4c-4ce8-435… <list>  
#> # ℹ 366 more rows
#> # ℹ 28 more variables: assay <list>, batch_condition <list>, cell_count <int>,
#> #   cell_type <list>, citation <chr>, development_stage <list>, disease <list>,
#> #   embeddings <list>, explorer_url <chr>, feature_biotype <list>,
#> #   feature_count <int>, feature_reference <list>, is_primary_data <list>,
#> #   mean_genes_per_cell <dbl>, organism <list>, primary_cell_count <int>,
#> #   raw_data_location <chr>, schema_version <chr>, …

Alternatively, one might be interested in specific authors. This is
most easily accomplished with a simple filter on
author_datasets, e.g.,

author_datasets |>
    filter(
        family %in% c("Teichmann", "Regev", "Haniffa")
    )
#> # A tibble: 250 × 34
#>    collection_id  family given consortium dataset_id dataset_version_id donor_id
#>    <chr>          <chr>  <chr> <chr>      <chr>      <chr>              <list>  
#>  1 1d1c7275-476a… Regev  Aviv  NA         d319af7f-… 3c80a5bb-8c89-433… <list>  
#>  2 1d1c7275-476a… Regev  Aviv  NA         bc7260e0-… cab44f51-3ebf-4c9… <list>  
#>  3 1d1c7275-476a… Regev  Aviv  NA         8623d55f-… f7e3732a-eea9-49a… <list>  
#>  4 1d1c7275-476a… Regev  Aviv  NA         7b75b2c4-… 4b53f264-a62e-41a… <list>  
#>  5 1d1c7275-476a… Regev  Aviv  NA         5cdbb2ea-… 9944528e-f23b-4d8… <list>  
#>  6 1d1c7275-476a… Regev  Aviv  NA         2f6a20f1-… 129c17aa-3d9d-435… <list>  
#>  7 f7cecffa-00b4… Teich… Sara… NA         eaf0c852-… ec370e4c-4ce8-435… <list>  
#>  8 f7cecffa-00b4… Teich… Sara… NA         5af90777-… 4fd0f389-89ac-4a6… <list>  
#>  9 f7cecffa-00b4… Teich… Sara… NA         318cb2a6-… 99d31e0c-4ccf-42c… <list>  
#> 10 2d2e2acd-dade… Teich… Sara… NA         f9846bb4-… f0b11a56-236f-4e7… <list>  
#> # ℹ 240 more rows
#> # ℹ 27 more variables: assay <list>, batch_condition <list>, cell_count <int>,
#> #   cell_type <list>, citation <chr>, development_stage <list>, disease <list>,
#> #   embeddings <list>, explorer_url <chr>, feature_biotype <list>,
#> #   feature_count <int>, feature_reference <list>, is_primary_data <list>,
#> #   mean_genes_per_cell <dbl>, organism <list>, primary_cell_count <int>,
#> #   raw_data_location <chr>, schema_version <chr>, …
or more carefully by constructing at data.frame of
family and given names, and performing a join with
author_datasets

authors_of_interest <-
    tibble(
        family = c("Teichmann", "Regev", "Haniffa"),
        given = c("Sarah A.", "Aviv", "Muzlifah")
    )
right_join(
    author_datasets,
    authors_of_interest,
    by = c("family", "given")
)
#> # A tibble: 240 × 34
#>    collection_id  family given consortium dataset_id dataset_version_id donor_id
#>    <chr>          <chr>  <chr> <chr>      <chr>      <chr>              <list>  
#>  1 1d1c7275-476a… Regev  Aviv  NA         d319af7f-… 3c80a5bb-8c89-433… <list>  
#>  2 1d1c7275-476a… Regev  Aviv  NA         bc7260e0-… cab44f51-3ebf-4c9… <list>  
#>  3 1d1c7275-476a… Regev  Aviv  NA         8623d55f-… f7e3732a-eea9-49a… <list>  
#>  4 1d1c7275-476a… Regev  Aviv  NA         7b75b2c4-… 4b53f264-a62e-41a… <list>  
#>  5 1d1c7275-476a… Regev  Aviv  NA         5cdbb2ea-… 9944528e-f23b-4d8… <list>  
#>  6 1d1c7275-476a… Regev  Aviv  NA         2f6a20f1-… 129c17aa-3d9d-435… <list>  
#>  7 f7cecffa-00b4… Teich… Sara… NA         eaf0c852-… ec370e4c-4ce8-435… <list>  
#>  8 f7cecffa-00b4… Teich… Sara… NA         5af90777-… 4fd0f389-89ac-4a6… <list>  
#>  9 f7cecffa-00b4… Teich… Sara… NA         318cb2a6-… 99d31e0c-4ccf-42c… <list>  
#> 10 2d2e2acd-dade… Teich… Sara… NA         f9846bb4-… f0b11a56-236f-4e7… <list>  
#> # ℹ 230 more rows
#> # ℹ 27 more variables: assay <list>, batch_condition <list>, cell_count <int>,
#> #   cell_type <list>, citation <chr>, development_stage <list>, disease <list>,
#> #   embeddings <list>, explorer_url <chr>, feature_biotype <list>,
#> #   feature_count <int>, feature_reference <list>, is_primary_data <list>,
#> #   mean_genes_per_cell <dbl>, organism <list>, primary_cell_count <int>,
#> #   raw_data_location <chr>, schema_version <chr>, …

Areas of interest

There are several interesting questions that suggest themselves, and
several areas where some additional work is required.

It might be interesting to identify authors working on similar
disease, or other areas of interest. The disease column in
the author_datasets table is a list.

author_datasets |>
    select(family, given, dataset_id, disease)
#> # A tibble: 43,244 × 4
#>    family  given    dataset_id                           disease   
#>    <chr>   <chr>    <chr>                                <list>    
#>  1 Zhu     Kaiyi    53ce2631-3646-4172-bbd9-38b0a44d8214 <list [1]>
#>  2 Zhu     Kaiyi    1d4128f6-c27b-40c4-af77-b1c7e2b694e7 <list [1]>
#>  3 Bendl   Jaroslav 53ce2631-3646-4172-bbd9-38b0a44d8214 <list [1]>
#>  4 Bendl   Jaroslav 1d4128f6-c27b-40c4-af77-b1c7e2b694e7 <list [1]>
#>  5 Rahman  Samir    53ce2631-3646-4172-bbd9-38b0a44d8214 <list [1]>
#>  6 Rahman  Samir    1d4128f6-c27b-40c4-af77-b1c7e2b694e7 <list [1]>
#>  7 Vicari  James M. 53ce2631-3646-4172-bbd9-38b0a44d8214 <list [1]>
#>  8 Vicari  James M. 1d4128f6-c27b-40c4-af77-b1c7e2b694e7 <list [1]>
#>  9 Coleman Claire   53ce2631-3646-4172-bbd9-38b0a44d8214 <list [1]>
#> 10 Coleman Claire   1d4128f6-c27b-40c4-af77-b1c7e2b694e7 <list [1]>
#> # ℹ 43,234 more rows

This is because a single dataset may involve more than one disease.
Furthermore, each entry in the list contains two elements, the
label and ontology_term_id of the disease.
There are two approaches to working with this data.

One approach to working with this data uses facilities in cellxgenedp as
outlined in an accompanying article. Discover possible diseases.

facets(db(), "disease")
#> # A tibble: 103 × 4
#>    facet   label                                          ontology_term_id     n
#>    <chr>   <chr>                                          <chr>            <int>
#>  1 disease normal                                         PATO:0000461      1001
#>  2 disease COVID-19                                       MONDO:0100096       60
#>  3 disease dementia                                       MONDO:0001627       50
#>  4 disease diabetic kidney disease                        MONDO:0005016       26
#>  5 disease myocardial infarction                          MONDO:0005068       26
#>  6 disease autosomal dominant polycystic kidney disease   MONDO:0004691       24
#>  7 disease Alzheimer disease                              MONDO:0004975       15
#>  8 disease lung adenocarcinoma                            MONDO:0005061       11
#>  9 disease small cell lung carcinoma                      MONDO:0008433       11
#> 10 disease arrhythmogenic right ventricular cardiomyopat… MONDO:0016587        9
#> # ℹ 93 more rows

Focus on COVID-19, and use facets_filter()
to select relevant author-dataset combinations.

author_datasets |>
    filter(facets_filter(disease, "label", "COVID-19"))
#> # A tibble: 1,766 × 34
#>    collection_id  family given consortium dataset_id dataset_version_id donor_id
#>    <chr>          <chr>  <chr> <chr>      <chr>      <chr>              <list>  
#>  1 a72afd53-ab92… Wilk   Aaro… NA         456e8b9b-… a5ac4378-58f6-4ff… <list>  
#>  2 a72afd53-ab92… Rusta… Arjun NA         456e8b9b-… a5ac4378-58f6-4ff… <list>  
#>  3 a72afd53-ab92… Zhao   Nanc… NA         456e8b9b-… a5ac4378-58f6-4ff… <list>  
#>  4 a72afd53-ab92… Roque  Jona… NA         456e8b9b-… a5ac4378-58f6-4ff… <list>  
#>  5 a72afd53-ab92… Martí… Giov… NA         456e8b9b-… a5ac4378-58f6-4ff… <list>  
#>  6 a72afd53-ab92… McKec… Juli… NA         456e8b9b-… a5ac4378-58f6-4ff… <list>  
#>  7 a72afd53-ab92… Ivison Geof… NA         456e8b9b-… a5ac4378-58f6-4ff… <list>  
#>  8 a72afd53-ab92… Ranga… Than… NA         456e8b9b-… a5ac4378-58f6-4ff… <list>  
#>  9 a72afd53-ab92… Verga… Rose… NA         456e8b9b-… a5ac4378-58f6-4ff… <list>  
#> 10 a72afd53-ab92… Hollis Tayl… NA         456e8b9b-… a5ac4378-58f6-4ff… <list>  
#> # ℹ 1,756 more rows
#> # ℹ 27 more variables: assay <list>, batch_condition <list>, cell_count <int>,
#> #   cell_type <list>, citation <chr>, development_stage <list>, disease <list>,
#> #   embeddings <list>, explorer_url <chr>, feature_biotype <list>,
#> #   feature_count <int>, feature_reference <list>, is_primary_data <list>,
#> #   mean_genes_per_cell <dbl>, organism <list>, primary_cell_count <int>,
#> #   raw_data_location <chr>, schema_version <chr>, …

Authors contributing to these datasets are

author_datasets |>
    filter(facets_filter(disease, "label", "COVID-19")) |>
    count(family, given, sort = TRUE)
#> # A tibble: 794 × 3
#>    family       given           n
#>    <chr>        <chr>       <int>
#>  1 Farber       Donna L.       29
#>  2 Guo          Xinzheng V.    28
#>  3 Saqi         Anjali         28
#>  4 Baldwin      Matthew R.     27
#>  5 Chait        Michael        27
#>  6 Connors      Thomas J.      27
#>  7 Davis-Porada Julia          27
#>  8 Dogra        Pranay         27
#>  9 Gray         Joshua I.      27
#> 10 Idzikowski   Emma           27
#> # ℹ 784 more rows

A second approach is to follow the practices in R for Data Science, the
disease column can be ‘unnested’ twice, the first time to
expand the author_datasets table for each disease, and the
second time to separate the two columns of each disease.

author_dataset_diseases <-
    author_datasets |>
    select(family, given, dataset_id, disease) |>
    tidyr::unnest_longer(disease) |>
    tidyr::unnest_wider(disease)
author_dataset_diseases
#> # A tibble: 57,097 × 5
#>    family  given    dataset_id                           label  ontology_term_id
#>    <chr>   <chr>    <chr>                                <chr>  <chr>           
#>  1 Zhu     Kaiyi    53ce2631-3646-4172-bbd9-38b0a44d8214 normal PATO:0000461    
#>  2 Zhu     Kaiyi    1d4128f6-c27b-40c4-af77-b1c7e2b694e7 normal PATO:0000461    
#>  3 Bendl   Jaroslav 53ce2631-3646-4172-bbd9-38b0a44d8214 normal PATO:0000461    
#>  4 Bendl   Jaroslav 1d4128f6-c27b-40c4-af77-b1c7e2b694e7 normal PATO:0000461    
#>  5 Rahman  Samir    53ce2631-3646-4172-bbd9-38b0a44d8214 normal PATO:0000461    
#>  6 Rahman  Samir    1d4128f6-c27b-40c4-af77-b1c7e2b694e7 normal PATO:0000461    
#>  7 Vicari  James M. 53ce2631-3646-4172-bbd9-38b0a44d8214 normal PATO:0000461    
#>  8 Vicari  James M. 1d4128f6-c27b-40c4-af77-b1c7e2b694e7 normal PATO:0000461    
#>  9 Coleman Claire   53ce2631-3646-4172-bbd9-38b0a44d8214 normal PATO:0000461    
#> 10 Coleman Claire   1d4128f6-c27b-40c4-af77-b1c7e2b694e7 normal PATO:0000461    
#> # ℹ 57,087 more rows
…
It might be interesting to know which authors have collaborated with
one another. This can be computed from the author_datasets
table, following approaches developed in the grantpubcite package to
identify collaborations between projects in the NIH-funded ITCR program.
See the graph visualization in the ITCR
collaboration section for inspiration.

Duplicate collection-author combinations

Here are the authors

authors <- authors()
authors
#> # A tibble: 5,154 × 4
#>    collection_id                        family   given      consortium
#>    <chr>                                <chr>    <chr>      <chr>     
#>  1 ceb895f4-ff9f-403a-b7c3-187a9657ac2c Zhu      Kaiyi      NA        
#>  2 ceb895f4-ff9f-403a-b7c3-187a9657ac2c Bendl    Jaroslav   NA        
#>  3 ceb895f4-ff9f-403a-b7c3-187a9657ac2c Rahman   Samir      NA        
#>  4 ceb895f4-ff9f-403a-b7c3-187a9657ac2c Vicari   James M.   NA        
#>  5 ceb895f4-ff9f-403a-b7c3-187a9657ac2c Coleman  Claire     NA        
#>  6 ceb895f4-ff9f-403a-b7c3-187a9657ac2c Clarence Tereza     NA        
#>  7 ceb895f4-ff9f-403a-b7c3-187a9657ac2c Latouche Ovaun      NA        
#>  8 ceb895f4-ff9f-403a-b7c3-187a9657ac2c Tsankova Nadejda M. NA        
#>  9 ceb895f4-ff9f-403a-b7c3-187a9657ac2c Li       Aiqun      NA        
#> 10 ceb895f4-ff9f-403a-b7c3-187a9657ac2c Brennand Kristen J. NA        
#> # ℹ 5,144 more rows

There are 5154 collection-author combinations. We expect these to be
distinct (each row identifying a unique collection-author combination).
But this is not true

nrow(authors) == nrow(distinct(authors))
#> [1] FALSE

Duplicated data are

authors |> 
    count(collection_id, family, given, consortium, sort = TRUE) |>
    filter(n > 1)
#> # A tibble: 73 × 5
#>    collection_id                        family     given        consortium     n
#>    <chr>                                <chr>      <chr>        <chr>      <int>
#>  1 e5f58829-1a66-40b5-a624-9046778e74f5 Pisco      Angela Oliv… NA             4
#>  2 e5f58829-1a66-40b5-a624-9046778e74f5 Crasta     Sheela       NA             3
#>  3 e5f58829-1a66-40b5-a624-9046778e74f5 Swift      Michael      NA             3
#>  4 e5f58829-1a66-40b5-a624-9046778e74f5 Travaglini Kyle J.      NA             3
#>  5 e5f58829-1a66-40b5-a624-9046778e74f5 de Morree  Antoine      NA             3
#>  6 51544e44-293b-4c2b-8c26-560678423380 Betts      Michael R.   NA             2
#>  7 51544e44-293b-4c2b-8c26-560678423380 Faryabi    Robert B.    NA             2
#>  8 51544e44-293b-4c2b-8c26-560678423380 Fasolino   Maria        NA             2
#>  9 51544e44-293b-4c2b-8c26-560678423380 Feldman    Michael      NA             2
#> 10 51544e44-293b-4c2b-8c26-560678423380 Goldman    Naomi        NA             2
#> # ℹ 63 more rows
…
