Discover and download datasets and files from the cellxgene data portal • cellxgenedp
…
db

## cellxgene_db
## number of collections(): 167
## number of datasets(): 1125
## number of files(): 2231

The portal organizes data hierarchically, with ‘collections’
(research studies, approximately), ‘datasets’, and ‘files’. Discover
data using the corresponding functions.

collections(db)

## # A tibble: 167 × 18
##    collection_id    collection_version_id collection_url consortia contact_email
##    <chr>            <chr>                 <chr>          <list>    <chr>        
##  1 1ca90a2d-2943-4… db29f59d-b9b7-4636-8… https://cellx… <list>    edl@allenins…
##  2 10ec9198-584e-4… 42fcb56f-6402-4156-b… https://cellx… <list>    chenc6@email…
##  3 1b014f39-f202-4… 9b295017-aff1-47ad-8… https://cellx… <lgl [1]> kimberly.ald…
##  4 367d95c0-0eb0-4… 4216ddce-94c0-4fdc-9… https://cellx… <list>    edl@allenins…
##  5 af893e86-8e9f-4… fc8a8009-02f0-4084-9… https://cellx… <list>    ruichen@bcm.…
##  6 48d354f5-a5ca-4… 54caf53d-0a4d-4874-9… https://cellx… <list>    Nathan.Salom…
##  7 a3ffde6c-7ad2-4… 3dd06fe9-000e-4b73-b… https://cellx… <list>    aviv.regev.s…
##  8 13d1c580-4b17-4… c7b93415-bf09-45df-9… https://cellx… <list>    my4@sanger.a…
##  9 fbc5881f-1ee3-4… 4f2da30d-407b-4c94-8… https://cellx… <list>    Douglas.Stra…
## 10 4f889ffc-d4bc-4… a6fbd6dc-4bf5-4b6a-9… https://cellx… <lgl [1]> kaistcbfg@gm…
## # ℹ 157 more rows
## # ℹ 13 more variables: contact_name <chr>, curator_name <chr>,
## #   description <chr>, doi <chr>, links <list>, name <chr>,
## #   publisher_metadata <list>, revising_in <lgl>, revision_of <lgl>,
## #   visibility <chr>, created_at <date>, published_at <date>, revised_at <date>

datasets(db)

## # A tibble: 1,125 × 25
##    dataset_id   dataset_version_id collection_id donor_id assay  batch_condition
##    <chr>        <chr>              <chr>         <list>   <list> <list>         
##  1 fc0ceb80-d2… d9e98068-b506-434… 1ca90a2d-294… <list>   <list> <list [1]>     
##  2 f67f2cfa-ba… 3361dba5-7446-4e3… 1ca90a2d-294… <list>   <list> <list [1]>     
##  3 eec3e37d-ed… 427e3253-c230-4d7… 1ca90a2d-294… <list>   <list> <list [1]>     
##  4 e8ac3386-31… 75338c67-3e91-428… 1ca90a2d-294… <list>   <list> <list [1]>     
##  5 de104f7e-14… 19cf2bd2-44ba-40a… 1ca90a2d-294… <list>   <list> <list [1]>     
##  6 d87f3f91-dc… b8883057-f9b4-41e… 1ca90a2d-294… <list>   <list> <list [1]>     
##  7 d2fc9880-e6… b0313650-ec3e-416… 1ca90a2d-294… <list>   <list> <list [1]>     
##  8 d0ea3ec4-0f… 806eaf48-4832-42e… 1ca90a2d-294… <list>   <list> <list [1]>     
##  9 c76098ba-ee… df8e241a-6cf8-43c… 1ca90a2d-294… <list>   <list> <list [1]>     
## 10 c2876b1b-06… 60496f4c-5bcd-4ce… 1ca90a2d-294… <list>   <list> <list [1]>     
## # ℹ 1,115 more rows
## # ℹ 19 more variables: cell_count <int>, cell_type <list>,
## #   development_stage <list>, disease <list>, explorer_url <chr>,
## #   is_primary_data <list>, mean_genes_per_cell <dbl>, organism <list>,
## #   primary_cell_count <int>, schema_version <chr>,
## #   self_reported_ethnicity <list>, sex <list>, suspension_type <list>,
## #   tissue <list>, title <chr>, tombstone <lgl>, …

files(db)

## # A tibble: 2,231 × 4
##    dataset_id                             filesize filetype url                 
##    <chr>                                     <dbl> <chr>    <chr>               
##  1 fc0ceb80-d2d9-47c1-9d78-b0e45c64c500   73375840 H5AD     https://datasets.ce…
##  2 fc0ceb80-d2d9-47c1-9d78-b0e45c64c500   58660235 RDS      https://datasets.ce…
##  3 f67f2cfa-ba45-4f77-8e26-64a15f666043  234660104 H5AD     https://datasets.ce…
##  4 f67f2cfa-ba45-4f77-8e26-64a15f666043  259116909 RDS      https://datasets.ce…
##  5 eec3e37d-ed41-4881-bc6e-aaf39a2c6eb0  866819000 H5AD     https://datasets.ce…
##  6 eec3e37d-ed41-4881-bc6e-aaf39a2c6eb0  925519839 RDS      https://datasets.ce…
##  7 e8ac3386-31d4-48ba-aa70-1bae0cf020e7  529089281 H5AD     https://datasets.ce…
##  8 e8ac3386-31d4-48ba-aa70-1bae0cf020e7  580572471 RDS      https://datasets.ce…
##  9 de104f7e-14fa-4795-bd19-b5ee2c1563e0 1643894191 H5AD     https://datasets.ce…
## 10 de104f7e-14fa-4795-bd19-b5ee2c1563e0 2157485192 RDS      https://datasets.ce…
## # ℹ 2,221 more rows
…
We can take a similar strategy to identify all datasets belonging to
this collection

left_join(
    collection_with_most_datasets |> select(collection_id),
    datasets(db),
    by = "collection_id"
)

## # A tibble: 138 × 25
##    collection_id   dataset_id dataset_version_id donor_id assay  batch_condition
##    <chr>           <chr>      <chr>              <list>   <list> <list>         
##  1 283d65eb-dd53-… ff7d15fa-… ad4f40b1-ad1b-43e… <list>   <list> <list [1]>     
##  2 283d65eb-dd53-… fe1a73ab-… ca8e9e3a-852f-487… <list>   <list> <list [1]>     
##  3 283d65eb-dd53-… fbf173f9-… 3cd2b19b-7bda-4ad… <list>   <list> <list [1]>     
##  4 283d65eb-dd53-… fa554686-… e05b2d3e-f9cb-460… <list>   <list> <list [1]>     
##  5 283d65eb-dd53-… f9034091-… 3c1f250d-f27e-49a… <list>   <list> <list [1]>     
##  6 283d65eb-dd53-… f8dda921-… de9cd660-638d-4b3… <list>   <list> <list [1]>     
##  7 283d65eb-dd53-… f7d003d4-… e50d1b65-4ad1-48b… <list>   <list> <list [1]>     
##  8 283d65eb-dd53-… f6d9f2ad-… a46aed38-e822-490… <list>   <list> <list [1]>     
##  9 283d65eb-dd53-… f5a04dff-… 1c90c2fe-8f62-47d… <list>   <list> <list [1]>     
## 10 283d65eb-dd53-… f502c312-… 166e3950-147b-4f4… <list>   <list> <list [1]>     
## # ℹ 128 more rows
## # ℹ 19 more variables: cell_count <int>, cell_type <list>,
## #   development_stage <list>, disease <list>, explorer_url <chr>,
## #   is_primary_data <list>, mean_genes_per_cell <dbl>, organism <list>,
## #   primary_cell_count <int>, schema_version <chr>,
## #   self_reported_ethnicity <list>, sex <list>, suspension_type <list>,
## #   tissue <list>, title <chr>, tombstone <lgl>, …

facets() provides information on ‘levels’ present in
specific columns

Notice that some columns are ‘lists’ rather than atomic vectors like
‘character’ or ‘integer’.

datasets(db) |>
    select(where(is.list))

## # A tibble: 1,125 × 12
##    donor_id    assay      batch_condition cell_type   development_stage disease
##    <list>      <list>     <list>          <list>      <list>            <list> 
##  1 <list [79]> <list [2]> <list [1]>      <list [1]>  <list [21]>       <list> 
##  2 <list [89]> <list [2]> <list [1]>      <list [1]>  <list [24]>       <list> 
##  3 <list [89]> <list [2]> <list [1]>      <list [1]>  <list [24]>       <list> 
##  4 <list [88]> <list [2]> <list [1]>      <list [1]>  <list [24]>       <list> 
##  5 <list [89]> <list [2]> <list [1]>      <list [1]>  <list [24]>       <list> 
##  6 <list [89]> <list [2]> <list [1]>      <list [1]>  <list [24]>       <list> 
##  7 <list [89]> <list [2]> <list [1]>      <list [1]>  <list [24]>       <list> 
##  8 <list [83]> <list [2]> <list [1]>      <list [1]>  <list [21]>       <list> 
##  9 <list [89]> <list [2]> <list [1]>      <list [1]>  <list [24]>       <list> 
## 10 <list [89]> <list [2]> <list [1]>      <list [18]> <list [24]>       <list> 
## # ℹ 1,115 more rows
## # ℹ 6 more variables: is_primary_data <list>, organism <list>,
## #   self_reported_ethnicity <list>, sex <list>, suspension_type <list>,
## #   tissue <list>

This indicates that at least some of the datasets had more than one
type of assay, cell_type, etc. The
facets() function provides a convenient way of discovering
possible levels of each column, e.g., assay,
organism, self_reported_ethnicity, or
sex, and the number of datasets with each label.

facets(db, "assay")

## # A tibble: 36 × 4
##    facet label                          ontology_term_id     n
##    <chr> <chr>                          <chr>            <int>
##  1 assay 10x 3' v3                      EFO:0009922        534
##  2 assay 10x 3' v2                      EFO:0009899        235
##  3 assay Slide-seqV2                    EFO:0030062        223
##  4 assay Visium Spatial Gene Expression EFO:0010961        107
##  5 assay 10x 5' v1                      EFO:0011025         69
##  6 assay Smart-seq2                     EFO:0008931         63
##  7 assay 10x multiome                   EFO:0030059         60
##  8 assay 10x 5' v2                      EFO:0009900         18
##  9 assay sci-RNA-seq3                   EFO:0030028         15
## 10 assay 10x 5' transcription profiling EFO:0030004         13
## # ℹ 26 more rows

facets(db, "self_reported_ethnicity")

## # A tibble: 32 × 4
##    facet                   label                          ontology_term_id     n
##    <chr>                   <chr>                          <chr>            <int>
##  1 self_reported_ethnicity European                       HANCESTRO:0005     483
##  2 self_reported_ethnicity unknown                        unknown            376
##  3 self_reported_ethnicity na                             na                 308
##  4 self_reported_ethnicity Asian                          HANCESTRO:0008     132
##  5 self_reported_ethnicity African American               HANCESTRO:0568      59
##  6 self_reported_ethnicity Hispanic or Latin American     HANCESTRO:0014      42
##  7 self_reported_ethnicity admixed ancestry               HANCESTRO:0306      28
##  8 self_reported_ethnicity African American or Afro-Cari… HANCESTRO:0016      26
##  9 self_reported_ethnicity multiethnic                    multiethnic         25
## 10 self_reported_ethnicity Greater Middle Eastern  (Midd… HANCESTRO:0015      22
## # ℹ 22 more rows
…
Collections may have links to additional external data, in this case
a DOI and two links to RAW_DATA.

external_links <- links(db)
external_links

## # A tibble: 685 × 4
##    collection_id                        link_name             link_type link_url
##    <chr>                                <chr>                 <chr>     <chr>   
##  1 1ca90a2d-2943-483d-b678-b809bf464c30 UW Alzheimer's Disea… OTHER     http://…
##  2 1ca90a2d-2943-483d-b678-b809bf464c30 Adult Changes in Tho… OTHER     https:/…
##  3 1ca90a2d-2943-483d-b678-b809bf464c30 UW BioRepository and… OTHER     https:/…
##  4 1ca90a2d-2943-483d-b678-b809bf464c30 SEA-AD Homepage       OTHER     https:/…
##  5 1ca90a2d-2943-483d-b678-b809bf464c30 AD Knowledge Portal   RAW_DATA  https:/…
##  6 1ca90a2d-2943-483d-b678-b809bf464c30 DOWNLOAD OFFICIAL DA… OTHER     https:/…
##  7 10ec9198-584e-4a7e-8a24-4a332915a4ef NA                    OTHER     https:/…
##  8 10ec9198-584e-4a7e-8a24-4a332915a4ef NA                    OTHER     https:/…
##  9 10ec9198-584e-4a7e-8a24-4a332915a4ef phs002371             RAW_DATA  https:/…
## 10 1b014f39-f202-45ae-bb7d-9286bddd8d8b Sequence data (phs00… RAW_DATA  https:/…
## # ℹ 675 more rows
…
Visualizing data in cellxgene

Discover files associated with our first selected dataset

selected_files <-
    left_join(
        african_american_female |> select(dataset_id),
        files(db),
        by = "dataset_id"
    )
selected_files

## # A tibble: 68 × 4
##    dataset_id                             filesize filetype url                 
##    <chr>                                     <dbl> <chr>    <chr>               
##  1 e47c65a8-7d2f-48b8-908e-04ea6505fa26  800797163 H5AD     https://datasets.ce…
##  2 e47c65a8-7d2f-48b8-908e-04ea6505fa26  773360314 RDS      https://datasets.ce…
##  3 c8d40d53-387b-48f2-9f89-72bfdb9c7c9f  385922942 H5AD     https://datasets.ce…
##  4 c8d40d53-387b-48f2-9f89-72bfdb9c7c9f  362851875 RDS      https://datasets.ce…
##  5 a6388a6f-6076-401b-9b30-7d4306a20035  315326067 H5AD     https://datasets.ce…
##  6 a6388a6f-6076-401b-9b30-7d4306a20035  302258458 RDS      https://datasets.ce…
##  7 a41202e6-173c-477c-8b4d-e0688ee1c4cb   82026236 H5AD     https://datasets.ce…
##  8 a41202e6-173c-477c-8b4d-e0688ee1c4cb   74894351 RDS      https://datasets.ce…
##  9 842c6f5d-4a94-4eef-8510-8c792d1124bc 7211362715 H5AD     https://datasets.ce…
## 10 842c6f5d-4a94-4eef-8510-8c792d1124bc 6817801616 RDS      https://datasets.ce…
## # ℹ 58 more rows
…
